…
``` r
TAB_7_3 %>% 
  filter(Clear == FALSE) %>% 
  select(pixel_qa, Clear, Cloud, Water, Cloud_confidence, Cirrus_Confidence)
```

    ## # A tibble: 25 x 6
    ##    pixel_qa Clear Cloud Water Cloud_confidence Cirrus_Confidence
    ##       <int> <lgl> <lgl> <lgl> <chr>            <chr>            
    ##  1        1 FALSE FALSE FALSE None             None             
    ##  2      324 FALSE FALSE TRUE  Low              Low              
    ##  3      328 FALSE FALSE FALSE Low              Low              
    ##  4      336 FALSE FALSE FALSE Low              Low              
    ##  5      352 FALSE TRUE  FALSE Low              Low              
    ##  6      368 FALSE TRUE  FALSE Low              Low              
    ##  7      388 FALSE FALSE TRUE  Medium           Low              
    ##  8      392 FALSE FALSE FALSE Medium           Low              
    ##  9      400 FALSE FALSE FALSE Medium           Low              
    ## 10      416 FALSE TRUE  FALSE Medium           Low              
    ## # … with 15 more rows
