…
### Run without mask:


```r
out_EE <- eegfw_get_dfrt(FC = FC)
eegfw_quick_process(ee=out_EE)
```

```
## # A tibble: 42 × 5
##    area_ee id    losstotal lossyear   sum
##      <dbl> <chr>     <dbl>    <int> <dbl>
##  1   3480. A          871.        1 22.4 
##  2   3480. A          871.        2 13.5 
##  3   3480. A          871.        3  9.84
##  4   3480. A          871.        4 52.1 
##  5   3480. A          871.        5  8.40
##  6   3480. A          871.        6 37.7 
##  7   3480. A          871.        7 25.6 
##  8   3480. A          871.        8 16.9 
##  9   3480. A          871.        9 29.0 
## 10   3480. A          871.       10 30.2 
## # … with 32 more rows
```

## Run with mask


```r
mask_90 <- eegfw_get_mask()
out_mask_EE <- eegfw_get_dfrt(FC = FC, mask =mask_90)
eegfw_quick_process(ee=out_mask_EE)
```

```
## # A tibble: 44 × 6
##    area_ee id    losstotal mask_hansen lossyear     sum
##      <dbl> <chr>     <dbl>       <dbl>    <int>   <dbl>
##  1   2994. A          715.       2525.        0 1810.  
##  2   2994. A          715.       2525.        1   17.6 
##  3   2994. A          715.       2525.        2   10.8 
##  4   2994. A          715.       2525.        3    7.98
##  5   2994. A          715.       2525.        4   40.6 
##  6   2994. A          715.       2525.        5    6.49
##  7   2994. A          715.       2525.        6   28.9 
##  8   2994. A          715.       2525.        7   20.2 
##  9   2994. A          715.       2525.        8   13.4 
## 10   2994. A          715.       2525.        9   23.6 
## # … with 34 more rows
```
…
