…
```r
df_test_Han_prep_2 <- df_test_Han_2 %>% 
    frst_HAN_process(area_mask_forest_var = area_forest_initial) %>% 
    frst_dfrt_complete(nest_vars=nesting(cell_id, area_forest_initial, dfrt_any, area_total, area_forest_final),
                      years_all=2000:2005) 
df_test_Han_prep_2 %>% select(cell_id, area_total, area_forest_initial, dfrt_any, dfrt_year, dfrt_area)
```

```
## # A tibble: 24 × 6
##    cell_id         area_total area_forest_initial dfrt_any dfrt_year dfrt_area
##    <chr>                <dbl>               <dbl> <lgl>        <int>     <dbl>
##  1 No deforestable      10000                   0 FALSE         2000        NA
##  2 No deforestable      10000                   0 FALSE         2001        NA
##  3 No deforestable      10000                   0 FALSE         2002        NA
##  4 No deforestable      10000                   0 FALSE         2003        NA
##  5 No deforestable      10000                   0 FALSE         2004        NA
##  6 No deforestable      10000                   0 FALSE         2005        NA
##  7 Normal               30000               30000 TRUE          2000         0
##  8 Normal               30000               30000 TRUE          2001         0
##  9 Normal               30000               30000 TRUE          2002     10000
## 10 Normal               30000               30000 TRUE          2003     10000
## # ℹ 14 more rows
```
