…
Convert to simple data

    ras_dat <- as.data.frame(r, xy = TRUE) %>%  as_tibble %>% 
      mutate(n_cell = 1:ncell(r)) %>% 
      select(n_cell, everything()) %>% 
      rename(value = layer)
    ras_dat

    ## # A tibble: 81 x 4
    ##    n_cell      x     y value
    ##     <int>  <dbl> <dbl> <int>
    ##  1      1 -0.889 0.889     3
    ##  2      2 -0.667 0.889    80
    ##  3      3 -0.444 0.889    43
    ##  4      4 -0.222 0.889    62
    ##  5      5  0     0.889    42
    ##  6      6  0.222 0.889    18
    ##  7      7  0.444 0.889    55
    ##  8      8  0.667 0.889    79
    ##  9      9  0.889 0.889    15
    ## 10     10 -0.889 0.667    24
    ## # ... with 71 more rows
…
